01_interoperability
…
# download the object from dropbox
downloadSpataObjects(sample_names = c("275_T"), folder = "objects")
downloadSpataObjects(sample_names = c("313_T"), folder = "objects")

# download the object interactively via shinyapp
launchSpataData()

Alternatively, we can use the dropbox link provided as part of the
error message and download it via a web browser.

# Meta data and links for MILO Lab database
SPATAData::source_df

## # A tibble: 34 × 21
##    sample patient_id age   stage status organ anatomical_region pathology
##    <chr>  <chr>      <chr> <int> <chr>  <chr> <chr>             <chr>    
##  1 275_T  #275UKF    >=80      1 p      Brain frontal           Tumor    
##  2 270_T  #270UKF    40-50     1 p      Brain frontal           Tumor    
##  3 269_T  #269UKF    50-60     1 p      Brain occipital         Tumor    
##  4 268_T  #268UKF    40-50     1 p      Brain frontal           Tumor    
##  5 266_T  #266UKF    60-80     1 p      Brain temporal          Tumor    
##  6 265_C  #265UKF    50-60     1 h      Brain temporal          #N/A     
##  7 265_T  #265UKF    50-60     1 p      Brain temporal          Tumor    
##  8 262_T  #262UKF    50-60     1 p      Brain temporal          Tumor    
##  9 260_T  #260UKF    >=80      1 p      Brain temporal          Tumor    
## 10 259_C  #259UKF    60-80     1 h      Brain temporal          #N/A     
## # ℹ 24 more rows
## # ℹ 13 more variables: hist_classification <chr>, hist_abbreviation <chr>,
## #   tags <chr>, organization <chr>, who_grade <chr>, species <chr>,
## #   link_spata <chr>, link_raw <chr>, link_image <chr>, citation <chr>,
## #   link_pub <chr>, date_added <chr>, assay_type <chr>
…
