spatial-transcriptomics
…
MILOLab Database

library(SPATAData)
library(SPATA2)

# overview of available datasets:
#View(source_df)
source_df

## # A tibble: 34 × 21
##    sample patient_id age   stage status organ anatomical_region pathology hist_classification     hist_abbreviation tags 
##    <chr>  <chr>      <chr> <int> <chr>  <chr> <chr>             <chr>     <chr>                   <chr>             <chr>
##  1 275_T  #275UKF    >=80      1 p      Brain frontal           Tumor     Glioblastoma            GBM               #N/A 
##  2 270_T  #270UKF    40-50     1 p      Brain frontal           Tumor     Astrocytoma IDH mutated AA                #N/A 
##  3 269_T  #269UKF    50-60     1 p      Brain occipital         Tumor     Glioblastoma            GBM               #N/A 
##  4 268_T  #268UKF    40-50     1 p      Brain frontal           Tumor     Oligodendroglioma       ODG               #N/A 
##  5 266_T  #266UKF    60-80     1 p      Brain temporal          Tumor     Gliosarcoma             GBM               #N/A 
##  6 265_C  #265UKF    50-60     1 h      Brain temporal          #N/A      Cortex                  Cortex            #N/A 
##  7 265_T  #265UKF    50-60     1 p      Brain temporal          Tumor     Giant cell glioblastoma GBM               #N/A 
##  8 262_T  #262UKF    50-60     1 p      Brain temporal          Tumor     Glioblastoma            GBM               #N/A 
##  9 260_T  #260UKF    >=80      1 p      Brain temporal          Tumor     Glioblastoma            GBM               #N/A 
## 10 259_C  #259UKF    60-80     1 h      Brain temporal          #N/A      Cortex                  GBM               #N/A 
## # ℹ 24 more rows
## # ℹ 10 more variables: organization <chr>, who_grade <chr>, species <chr>, link_spata <chr>, link_raw <chr>,
## #   link_image <chr>, citation <chr>, link_pub <chr>, date_added <chr>, assay_type <chr>
…
